<svg width="1440" height="924" viewBox="0 0 1440 924" fill="none" xmlns="http://www.w3.org/2000/svg">
<mask id="mask0" mask-type="alpha" maskUnits="userSpaceOnUse" x="0" y="0" width="1440" height="924">
<rect width="1440" height="924" fill="white"/>
</mask>
<g mask="url(#mask0)">
<rect width="1440" height="924" fill="url(#paint0_linear)"/>
<rect opacity="0.1" x="1120" y="50" width="245" height="245" fill="url(#paint1_linear)"/>
<rect opacity="0.1" x="1231" y="224" width="89" height="89" fill="url(#paint2_linear)"/>
<rect opacity="0.1" x="100" y="206" width="89" height="89" fill="url(#paint3_linear)"/>
<path opacity="0.1" d="M1867.18 397.305C1178.46 669.331 355.426 408.198 -15.3152 294.541L-49.5236 676.899C780.722 1060.89 1700.11 590.902 1863.67 459.593L1867.18 397.305Z" fill="url(#paint4_linear)"/>
<defs>
<linearGradient id="paint0_linear" x1="720" y1="0" x2="720" y2="924" gradientUnits="userSpaceOnUse">
<stop stop-color="#160F39"/>
<stop offset="1" stop-color="#330A32"/>
</linearGradient>
<linearGradient id="paint1_linear" x1="1146.19" y1="75.373" x2="1331.44" y2="258.714" gradientUnits="userSpaceOnUse">
<stop stop-color="white"/>
<stop offset="1" stop-color="white" stop-opacity="0"/>
</linearGradient>
<linearGradient id="paint2_linear" x1="1240.51" y1="233.217" x2="1307.81" y2="299.818" gradientUnits="userSpaceOnUse">
<stop stop-color="white"/>
<stop offset="1" stop-color="white" stop-opacity="0"/>
</linearGradient>
<linearGradient id="paint3_linear" x1="109.514" y1="215.217" x2="176.81" y2="281.818" gradientUnits="userSpaceOnUse">
<stop stop-color="white"/>
<stop offset="1" stop-color="white" stop-opacity="0"/>
</linearGradient>
<linearGradient id="paint4_linear" x1="107.975" y1="343.462" x2="539.78" y2="1168.8" gradientUnits="userSpaceOnUse">
<stop stop-color="white"/>
<stop offset="1" stop-color="white" stop-opacity="0"/>
</linearGradient>
</defs>
</g>
</svg>
