<svg width="1440" height="924" viewBox="0 0 1440 924" fill="none" xmlns="http://www.w3.org/2000/svg">
<mask id="mask0" mask-type="alpha" maskUnits="userSpaceOnUse" x="0" y="0" width="1440" height="924">
<rect width="1440" height="924" fill="white"/>
</mask>
<g mask="url(#mask0)">
<rect width="1440" height="924" fill="url(#paint0_linear)"/>
<rect opacity="0.1" x="783" y="105" width="75" height="72" fill="white"/>
<rect opacity="0.1" x="1238" y="720" width="75" height="72" fill="white"/>
<rect opacity="0.1" x="1027" y="141" width="19" height="18" fill="white"/>
<rect opacity="0.1" x="1371.5" y="50.5" width="63" height="60" transform="rotate(90 1371.5 50.5)" fill="url(#paint1_linear)"/>
<rect opacity="0.1" x="561" y="46" width="245" height="245" fill="url(#paint2_linear)"/>
<rect x="-223" y="1" width="618" height="922" fill="url(#paint3_linear)" stroke="url(#paint4_linear)" stroke-width="2"/>
<rect opacity="0.1" x="71" y="60" width="245" height="245" fill="url(#paint5_linear)"/>
<rect opacity="0.1" x="141" y="337" width="125" height="125" fill="url(#paint6_linear)"/>
<rect opacity="0.1" x="108" y="187" width="45" height="45" fill="url(#paint7_linear)"/>
<defs>
<linearGradient id="paint0_linear" x1="1440" y1="462" x2="950.817" y2="-338.495" gradientUnits="userSpaceOnUse">
<stop/>
<stop offset="1" stop-color="#841847"/>
</linearGradient>
<linearGradient id="paint1_linear" x1="1378.23" y1="56.7138" x2="1423.57" y2="103.826" gradientUnits="userSpaceOnUse">
<stop stop-color="white"/>
<stop offset="1" stop-color="white" stop-opacity="0"/>
</linearGradient>
<linearGradient id="paint2_linear" x1="587.192" y1="71.373" x2="772.442" y2="254.714" gradientUnits="userSpaceOnUse">
<stop stop-color="white"/>
<stop offset="1" stop-color="white" stop-opacity="0"/>
</linearGradient>
<linearGradient id="paint3_linear" x1="86" y1="0" x2="86" y2="924" gradientUnits="userSpaceOnUse">
<stop stop-color="#160F39"/>
<stop offset="1" stop-color="#330A32"/>
</linearGradient>
<linearGradient id="paint4_linear" x1="-192.836" y1="92.4" x2="397.501" y2="112.962" gradientUnits="userSpaceOnUse">
<stop stop-color="#F9C5A5"/>
<stop offset="0.5" stop-color="#BD517F"/>
<stop offset="1" stop-color="#09A5A4"/>
</linearGradient>
<linearGradient id="paint5_linear" x1="97.1915" y1="85.373" x2="282.442" y2="268.714" gradientUnits="userSpaceOnUse">
<stop stop-color="white"/>
<stop offset="1" stop-color="white" stop-opacity="0"/>
</linearGradient>
<linearGradient id="paint6_linear" x1="154.363" y1="349.945" x2="248.879" y2="443.487" gradientUnits="userSpaceOnUse">
<stop stop-color="white"/>
<stop offset="1" stop-color="white" stop-opacity="0"/>
</linearGradient>
<linearGradient id="paint7_linear" x1="112.811" y1="191.66" x2="146.836" y2="225.335" gradientUnits="userSpaceOnUse">
<stop stop-color="white"/>
<stop offset="1" stop-color="white" stop-opacity="0"/>
</linearGradient>
</defs>
</g>
</svg>
