<svg width="375" height="463" viewBox="0 0 375 463" fill="none" xmlns="http://www.w3.org/2000/svg">
<rect width="375" height="463" fill="url(#paint0_linear)"/>
<rect x="1" y="1" width="194" height="461" fill="url(#paint1_linear)" stroke="url(#paint2_linear)" stroke-width="2"/>
<defs>
<linearGradient id="paint0_linear" x1="375" y1="231.5" x2="103.121" y2="0.281922" gradientUnits="userSpaceOnUse">
<stop/>
<stop offset="1" stop-color="#841847"/>
</linearGradient>
<linearGradient id="paint1_linear" x1="98" y1="0" x2="98" y2="463" gradientUnits="userSpaceOnUse">
<stop stop-color="#160F39"/>
<stop offset="1" stop-color="#330A32"/>
</linearGradient>
<linearGradient id="paint2_linear" x1="9.85185" y1="46.3" x2="196.611" y2="50.404" gradientUnits="userSpaceOnUse">
<stop stop-color="#F9C5A5"/>
<stop offset="0.5" stop-color="#BD517F"/>
<stop offset="1" stop-color="#09A5A4"/>
</linearGradient>
</defs>
</svg>
