<svg width="56" height="58" viewBox="0 0 56 58" fill="none" xmlns="http://www.w3.org/2000/svg">
<path d="M54.8531 0.33177C54.4109 -0.11059 53.6935 -0.11059 53.2511 0.33177L34.9666 18.6162H26.2637C24.8185 18.6162 23.444 18.0698 22.3933 17.0776C21.2707 16.0174 20.6269 14.5238 20.6269 12.9796V11.3348C20.6269 9.77981 20.1401 8.30014 19.2402 7.06787L24.3737 1.93435C24.816 1.49199 24.816 0.774696 24.3737 0.332223C23.9313 -0.110137 23.214 -0.110137 22.7716 0.332223L1.98269 21.1328C1.22711 21.8909 0.812389 22.898 0.815107 23.9685C0.817826 25.039 1.23764 26.0439 1.99719 26.7981L29.9557 54.5654C32.1857 56.7802 35.1447 57.9999 38.2877 57.9999H49.8534C52.0604 57.9999 53.8559 56.2043 53.8559 53.9973V50.5234C53.8559 46.1504 51.2662 42.1945 47.2585 40.4453L42.9415 38.5612C41.1513 37.7799 39.9117 36.1599 39.6254 34.2277L37.4559 19.5831C37.4454 19.5131 37.4288 19.4455 37.4066 19.3805L54.8531 1.93378C55.2955 1.49142 55.2955 0.77413 54.8531 0.33177ZM42.0351 40.6376L46.3521 42.5218C49.1837 43.7577 51.1224 46.3814 51.5153 49.3907H39.6076C38.3533 49.3907 37.1342 48.8732 36.2627 47.9708L26.4379 37.7968C26.0032 37.3466 25.286 37.3342 24.8361 37.7688C24.386 38.2033 24.3736 38.9205 24.8081 39.3706L34.6329 49.5446C35.9288 50.8865 37.742 51.6563 39.6076 51.6563H51.5903V53.9974C51.5903 54.9552 50.8112 55.7344 49.8534 55.7344H38.2877C35.747 55.7344 33.355 54.7484 31.5523 52.958L3.59376 25.1907C3.26412 24.8633 3.08196 24.4272 3.08083 23.9627C3.07958 23.4982 3.25958 23.0612 3.58753 22.7322L6.20476 20.106L17.7275 32.0383C18.1622 32.4882 18.8792 32.5008 19.3293 32.0662C19.7794 31.6317 19.7918 30.9145 19.3573 30.4645L7.80564 18.5024L17.6101 8.69798C18.0995 9.48154 18.3614 10.388 18.3614 11.3348V12.9795C18.3614 15.1442 19.2641 17.2382 20.8379 18.7245C22.3107 20.1156 24.2377 20.8817 26.2638 20.8817H35.3579L35.8558 24.2424H30.1048C29.4791 24.2424 28.972 24.7496 28.972 25.3752C28.972 26.0009 29.4791 26.508 30.1048 26.508H36.1913L36.6892 29.8687H31.4641C30.8385 29.8687 30.3313 30.3759 30.3313 31.0015C30.3313 31.6272 30.8385 32.1343 31.4641 32.1343H37.0248L37.3842 34.5597C37.4313 34.878 37.4976 35.19 37.5807 35.495H32.6535C32.0278 35.495 31.5207 36.0022 31.5207 36.6278C31.5207 37.2535 32.0278 37.7606 32.6535 37.7606H38.604C39.4286 39.0095 40.6066 40.0141 42.0351 40.6376Z" fill="url(#paint0_linear)"/>
<path d="M22.0822 33.7849C21.7843 33.7849 21.492 33.9061 21.2813 34.1168C21.0706 34.3275 20.9494 34.6198 20.9494 34.9177C20.9494 35.2157 21.0706 35.5079 21.2813 35.7186C21.492 35.9293 21.7843 36.0505 22.0822 36.0505C22.3813 36.0505 22.6724 35.9293 22.8831 35.7186C23.0949 35.5079 23.215 35.2157 23.215 34.9177C23.215 34.6198 23.0949 34.3275 22.8831 34.1168C22.6724 33.9061 22.3813 33.7849 22.0822 33.7849Z" fill="url(#paint1_linear)"/>
<defs>
<linearGradient id="paint0_linear" x1="0.815094" y1="18.913" x2="33.0708" y2="57.549" gradientUnits="userSpaceOnUse">
<stop stop-color="#F9C5A5"/>
<stop offset="0.494792" stop-color="#BB4D7D"/>
<stop offset="1" stop-color="#08A5A4"/>
</linearGradient>
<linearGradient id="paint1_linear" x1="20.9494" y1="34.5237" x2="22.1924" y2="36.112" gradientUnits="userSpaceOnUse">
<stop stop-color="#F9C5A5"/>
<stop offset="0.494792" stop-color="#BB4D7D"/>
<stop offset="1" stop-color="#08A5A4"/>
</linearGradient>
</defs>
</svg>
