<svg width="1440" height="1755" viewBox="0 0 1440 1755" fill="none" xmlns="http://www.w3.org/2000/svg">
<rect y="55" width="1440" height="1246" fill="url(#paint0_linear)"/>
<path d="M1395.03 174.571C1458.5 226.535 1503.43 254.542 1537.72 268.084C1572.12 281.667 1595.82 280.704 1616.7 274.799C1626.23 272.101 1635.16 268.377 1644.13 264.633C1644.9 264.31 1645.67 263.987 1646.45 263.665C1656.24 259.588 1666.2 255.57 1677.4 252.754C1699.71 247.144 1727.13 246.249 1767.63 259.776C1807.55 273.11 1839.38 316.962 1859.32 374.747C1879.22 432.416 1887.08 503.424 1879.49 570.158C1871.91 636.922 1848.89 699.137 1807.32 739.497C1765.86 779.749 1705.67 798.527 1623.01 777.983C1492.12 745.451 1433.78 715.204 1384.46 689.63C1371.15 682.728 1358.49 676.167 1345.24 669.993C1282.7 640.841 1207.5 620.638 990.181 614.411C936.082 612.861 898.193 601.567 873.615 583.651C849.124 565.798 837.664 541.237 836.634 512.604C835.6 483.882 845.068 451.011 862.62 416.806C880.161 382.622 905.708 347.235 936.651 313.525C998.552 246.088 1081.87 185.549 1165.43 154.818C1249.01 124.079 1332.4 123.29 1395.03 174.571Z" stroke="url(#paint1_linear)" stroke-width="4"/>
<path d="M882.597 1217.26C956.639 1252.43 1006.82 1268.74 1043.13 1273.62C1079.47 1278.5 1101.91 1271.93 1120.46 1261.35C1128.99 1256.48 1136.68 1250.78 1144.51 1244.98C1145.18 1244.48 1145.85 1243.99 1146.52 1243.49C1155.05 1237.18 1163.83 1230.82 1174.13 1225.34C1194.71 1214.39 1221.4 1206.89 1264.23 1210.31C1306.9 1213.72 1348.67 1249.14 1381.99 1300.56C1415.29 1351.96 1440.06 1419.21 1448.76 1486.03C1457.46 1552.85 1450.08 1619.16 1419.17 1668.73C1388.28 1718.27 1333.84 1751.16 1248.22 1751.08C1113.16 1750.95 1049.1 1735.56 995.063 1722.58C980.5 1719.09 966.665 1715.76 952.364 1712.96C884.944 1699.75 807.336 1698.15 594.953 1744.31C541.914 1755.83 502.08 1754.02 473.527 1742.38C444.998 1730.74 427.678 1709.27 419.683 1681.32C411.683 1653.35 413.022 1618.89 421.875 1581.33C430.726 1543.77 447.079 1503.16 469.066 1462.91C513.044 1382.41 579.527 1303.43 653.487 1253.36C727.452 1203.3 808.799 1182.21 882.597 1217.26Z" stroke="url(#paint2_linear)"/>
<defs>
<linearGradient id="paint0_linear" x1="720" y1="55" x2="720" y2="1301" gradientUnits="userSpaceOnUse">
<stop stop-color="#160F39"/>
<stop offset="1" stop-color="#330A32"/>
</linearGradient>
<linearGradient id="paint1_linear" x1="1026.16" y1="73.3096" x2="1921.84" y2="463.766" gradientUnits="userSpaceOnUse">
<stop stop-color="#F9C5A5"/>
<stop offset="0.5" stop-color="#BD517F"/>
<stop offset="1" stop-color="#09A5A4"/>
</linearGradient>
<linearGradient id="paint2_linear" x1="499.56" y1="1208.94" x2="1462.81" y2="1372.77" gradientUnits="userSpaceOnUse">
<stop stop-color="#F9C5A5"/>
<stop offset="0.5" stop-color="#BD517F"/>
<stop offset="1" stop-color="#09A5A4"/>
</linearGradient>
</defs>
</svg>
