<svg width="10" height="9" viewBox="0 0 10 9" fill="none" xmlns="http://www.w3.org/2000/svg">
<path fill-rule="evenodd" clip-rule="evenodd" d="M9.20047 0.201667C8.94047 -0.0583333 8.52047 -0.0583333 8.26047 0.201667L5.00047 3.455L1.74047 0.195C1.48047 -0.065 1.06047 -0.065 0.800469 0.195C0.540469 0.455 0.540469 0.875 0.800469 1.135L4.06047 4.395L0.800469 7.655C0.540469 7.915 0.540469 8.335 0.800469 8.595C1.06047 8.855 1.48047 8.855 1.74047 8.595L5.00047 5.335L8.26047 8.595C8.52047 8.855 8.94047 8.855 9.20047 8.595C9.46047 8.335 9.46047 7.915 9.20047 7.655L5.94047 4.395L9.20047 1.135C9.4538 0.881667 9.4538 0.455 9.20047 0.201667Z" fill="white"/>
</svg>
