<svg width="375" height="883" viewBox="0 0 375 883" fill="none" xmlns="http://www.w3.org/2000/svg">
<g opacity="0.2" filter="url(#filter0_f)">
<circle cx="-150" cy="-109" r="462" fill="#797979"/>
</g>
<g opacity="0.1" filter="url(#filter1_f)">
<ellipse cx="249.5" cy="835.533" rx="580.5" ry="611.12" fill="url(#paint0_linear)"/>
</g>
<rect opacity="0.1" x="251" y="315" width="75" height="72" fill="white"/>
<rect opacity="0.1" x="228" y="729" width="75" height="72" fill="url(#paint1_linear)"/>
<rect opacity="0.1" x="8" y="37" width="245" height="245" fill="url(#paint2_linear)"/>
<rect opacity="0.1" x="337" y="166" width="31" height="30" fill="#F2F2F2"/>
<defs>
<filter id="filter0_f" x="-862" y="-821" width="1424" height="1424" filterUnits="userSpaceOnUse" color-interpolation-filters="sRGB">
<feFlood flood-opacity="0" result="BackgroundImageFix"/>
<feBlend mode="normal" in="SourceGraphic" in2="BackgroundImageFix" result="shape"/>
<feGaussianBlur stdDeviation="125" result="effect1_foregroundBlur"/>
</filter>
<filter id="filter1_f" x="-581" y="-25.5868" width="1661" height="1722.24" filterUnits="userSpaceOnUse" color-interpolation-filters="sRGB">
<feFlood flood-opacity="0" result="BackgroundImageFix"/>
<feBlend mode="normal" in="SourceGraphic" in2="BackgroundImageFix" result="shape"/>
<feGaussianBlur stdDeviation="125" result="effect1_foregroundBlur"/>
</filter>
<linearGradient id="paint0_linear" x1="249.5" y1="224.413" x2="249.5" y2="1446.65" gradientUnits="userSpaceOnUse">
<stop stop-color="#160F39"/>
<stop offset="1" stop-color="#330A32"/>
</linearGradient>
<linearGradient id="paint1_linear" x1="236.018" y1="736.457" x2="290.436" y2="792.558" gradientUnits="userSpaceOnUse">
<stop stop-color="white"/>
<stop offset="1" stop-color="white" stop-opacity="0"/>
</linearGradient>
<linearGradient id="paint2_linear" x1="34.1915" y1="62.373" x2="219.442" y2="245.714" gradientUnits="userSpaceOnUse">
<stop stop-color="white"/>
<stop offset="1" stop-color="white" stop-opacity="0"/>
</linearGradient>
</defs>
</svg>
