<svg width="1440" height="455" viewBox="0 0 1440 455" fill="none" xmlns="http://www.w3.org/2000/svg">
<rect width="1440" height="455" transform="matrix(1 0 0 -1 0 455)" fill="url(#paint0_linear)"/>
<rect opacity="0.1" x="1224" y="314" width="75" height="72" fill="white"/>
<rect opacity="0.1" x="75" y="77" width="75" height="72" fill="white"/>
<rect opacity="0.1" x="981" y="36" width="245" height="245" fill="url(#paint1_linear)"/>
<rect opacity="0.1" x="1310" y="165" width="31" height="30" fill="#F2F2F2"/>
<circle opacity="0.1" cx="249.5" cy="512.5" r="580.5" fill="url(#paint2_linear)"/>
<g opacity="0.2" filter="url(#filter0_f)">
<circle cx="608" cy="-107" r="462" fill="#797979"/>
</g>
<defs>
<filter id="filter0_f" x="-104" y="-819" width="1424" height="1424" filterUnits="userSpaceOnUse" color-interpolation-filters="sRGB">
<feFlood flood-opacity="0" result="BackgroundImageFix"/>
<feBlend mode="normal" in="SourceGraphic" in2="BackgroundImageFix" result="shape"/>
<feGaussianBlur stdDeviation="125" result="effect1_foregroundBlur"/>
</filter>
<linearGradient id="paint0_linear" x1="720" y1="0" x2="720" y2="455" gradientUnits="userSpaceOnUse">
<stop stop-color="#160F39"/>
<stop offset="1" stop-color="#330A32"/>
</linearGradient>
<linearGradient id="paint1_linear" x1="1007.19" y1="61.373" x2="1192.44" y2="244.714" gradientUnits="userSpaceOnUse">
<stop stop-color="white"/>
<stop offset="1" stop-color="white" stop-opacity="0"/>
</linearGradient>
<linearGradient id="paint2_linear" x1="-206.884" y1="52.2372" x2="670.977" y2="921.048" gradientUnits="userSpaceOnUse">
<stop stop-color="white"/>
<stop offset="1" stop-color="white" stop-opacity="0"/>
</linearGradient>
</defs>
</svg>
