<svg width="326" height="181" viewBox="0 0 326 181" fill="none" xmlns="http://www.w3.org/2000/svg">
<path d="M98.9401 127.494C85.9377 128.599 77.6872 130.384 72.2494 132.649C66.7854 134.924 64.1556 137.686 62.4072 140.706C61.6122 142.08 61.0024 143.502 60.3942 144.921C60.3414 145.044 60.2887 145.167 60.2358 145.29C59.5701 146.839 58.8829 148.39 57.9248 149.938C56.0212 153.016 53.0195 156.132 46.9279 159.062C40.9745 161.926 32.5546 160.482 23.8956 156.11C15.264 151.752 6.5244 144.545 0.0155393 136.117C-6.49775 127.684 -10.7362 118.082 -10.464 108.934C-10.1929 99.8254 -5.44699 91.0714 6.21381 84.2857C24.7312 73.5098 34.717 70.5034 43.175 67.9569C45.4599 67.269 47.6333 66.6146 49.8334 65.8497C60.2334 62.2339 71.0724 56.1895 96.5642 32.8253C102.894 27.0234 108.436 24.1408 113.173 23.4686C117.884 22.8002 121.857 24.3088 125.109 27.4242C128.377 30.5549 130.924 35.3189 132.704 41.1459C134.483 46.967 135.485 53.8141 135.687 61.0718C136.091 75.5926 133.293 91.6927 127.177 104.419C121.058 117.152 111.674 126.412 98.9401 127.494Z" stroke="url(#paint0_linear)"/>
<path d="M215.701 169.007C207.459 158.89 201.334 153.082 196.398 149.867C191.439 146.636 187.675 146.021 184.195 146.28C182.612 146.397 181.093 146.695 179.579 146.993C179.447 147.018 179.316 147.044 179.185 147.07C177.53 147.393 175.862 147.699 174.043 147.781C170.428 147.944 166.161 147.221 160.307 143.841C154.586 140.538 151.032 132.769 149.763 123.153C148.497 113.566 149.523 102.285 152.815 92.1583C156.11 82.0244 161.651 73.1113 169.361 68.1794C177.038 63.2686 186.943 62.2541 199.121 68.0606C218.46 77.2814 226.572 83.8348 233.444 89.3856C235.3 90.8851 237.065 92.3114 238.937 93.6975C247.786 100.249 258.889 105.795 292.557 113.681C300.917 115.639 306.422 118.591 309.648 122.125C312.856 125.64 313.849 129.772 313.109 134.214C312.365 138.678 309.866 143.467 306.056 148.222C302.251 152.972 297.16 157.66 291.279 161.918C279.513 170.437 264.637 177.201 250.678 179.323C236.712 181.447 223.774 178.916 215.701 169.007Z" stroke="url(#paint1_linear)"/>
<path d="M368.263 84.4262C360.021 74.3093 353.896 68.501 348.96 65.2859C344.001 62.0552 340.237 61.4399 336.757 61.6985C335.174 61.8161 333.655 62.1142 332.141 62.4116C332.009 62.4374 331.878 62.4631 331.747 62.4888C330.092 62.8121 328.424 63.1184 326.605 63.2001C322.99 63.3625 318.723 62.6399 312.869 59.26C307.148 55.9568 303.594 48.1884 302.325 38.5716C301.059 28.9854 302.085 17.7042 305.377 7.57721C308.672 -2.55665 314.213 -11.4698 321.923 -16.4016C329.6 -21.3124 339.505 -22.3269 351.683 -16.5204C371.022 -7.29963 379.134 -0.746261 386.006 4.8045C387.862 6.30403 389.627 7.73039 391.499 9.1164C400.348 15.6684 411.451 21.214 445.119 29.0996C453.479 31.0578 458.984 34.0098 462.21 37.5442C465.418 41.0587 466.411 45.1905 465.671 49.6326C464.927 54.0967 462.428 58.8861 458.618 63.6411C454.813 68.3914 449.722 73.0787 443.841 77.3368C432.075 85.8562 417.199 92.6199 403.24 94.7423C389.274 96.8656 376.336 94.3345 368.263 84.4262Z" stroke="url(#paint2_linear)"/>
<defs>
<linearGradient id="paint0_linear" x1="152.257" y1="98.3677" x2="6.81672" y2="153.034" gradientUnits="userSpaceOnUse">
<stop stop-color="#F9C5A5"/>
<stop offset="0.5" stop-color="#BD517F"/>
<stop offset="1" stop-color="#09A5A4"/>
</linearGradient>
<linearGradient id="paint1_linear" x1="269.814" y1="196.628" x2="142.677" y2="107.312" gradientUnits="userSpaceOnUse">
<stop stop-color="#F9C5A5"/>
<stop offset="0.5" stop-color="#BD517F"/>
<stop offset="1" stop-color="#09A5A4"/>
</linearGradient>
<linearGradient id="paint2_linear" x1="422.376" y1="112.047" x2="295.239" y2="22.7305" gradientUnits="userSpaceOnUse">
<stop stop-color="#F9C5A5"/>
<stop offset="0.5" stop-color="#BD517F"/>
<stop offset="1" stop-color="#09A5A4"/>
</linearGradient>
</defs>
</svg>
