<svg width="1440" height="1198" viewBox="0 0 1440 1198" fill="none" xmlns="http://www.w3.org/2000/svg">
<rect width="1440" height="924" fill="url(#paint0_linear)"/>
<path d="M192.367 95.9702C293.328 134.413 371.333 120.195 433.434 103.489C441.793 101.24 449.857 98.9486 457.648 96.7348C478.813 90.7199 497.953 85.2808 515.465 82.8455C539.388 79.5186 560.163 81.8188 578.762 95.9016C597.499 110.089 622.361 129.789 645.241 153.232C668.124 176.679 688.997 203.842 699.789 232.947C710.575 262.033 711.293 293.054 693.884 324.285C676.462 355.539 640.852 387.065 578.846 417.056C454.783 477.062 374.211 489.697 316.724 481.052C262.655 472.92 228.938 445.959 198.563 421.67C196.649 420.139 194.748 418.619 192.856 417.115C184.942 410.823 175.844 399.888 166.373 385.681C156.907 371.483 147.087 354.046 137.723 334.78C118.993 296.245 102.099 250.422 93.4939 208.592C89.1914 187.677 86.9643 167.776 87.61 150.291C88.2559 132.802 91.7747 117.771 98.9266 106.562C106.066 95.3726 116.844 87.9573 132.107 85.7096C147.394 83.4585 167.202 86.3886 192.367 95.9702Z" stroke="url(#paint1_linear)"/>
<path d="M537.118 373.862C591.62 352.76 672.163 338.462 761.436 332.767C850.678 327.073 948.494 329.984 1037.48 343.214C1126.52 356.452 1206.51 379.99 1260.27 415.411C1287.12 433.111 1307.33 453.71 1318.9 477.371C1330.44 500.993 1333.46 527.812 1325.7 558.139C1311.06 615.359 1291.2 657.645 1264.48 689.207C1237.77 720.746 1204.11 741.705 1161.64 756.099C1119.13 770.507 1067.83 778.327 1005.92 783.582C958.398 787.616 904.721 790.133 844.049 792.978C825.665 793.84 806.64 794.733 786.949 795.706C575.406 806.166 447.178 804.914 367.712 781.78C328.069 770.239 300.713 753.289 281.205 729.737C261.673 706.155 249.859 675.774 241.634 637.091C235.46 608.054 237.189 582.49 246.549 559.143C255.918 535.773 272.997 514.464 297.78 494.062C347.413 453.202 427.546 416.287 537.118 373.862Z" stroke="url(#paint2_linear)" stroke-width="4"/>
<path d="M1501.12 -242.138C1555.62 -263.24 1636.16 -277.538 1725.44 -283.233C1814.68 -288.927 1912.49 -286.016 2001.48 -272.786C2090.52 -259.548 2170.51 -236.01 2224.27 -200.589C2251.12 -182.889 2271.33 -162.29 2282.9 -138.629C2294.44 -115.007 2297.46 -88.1879 2289.7 -57.8607C2275.06 -0.640839 2255.2 41.6451 2228.48 73.2072C2201.77 104.746 2168.11 125.705 2125.64 140.099C2083.13 154.507 2031.83 162.327 1969.92 167.582C1922.4 171.616 1868.72 174.133 1808.05 176.978C1789.67 177.84 1770.64 178.733 1750.95 179.706C1539.41 190.166 1411.18 188.914 1331.71 165.78C1292.07 154.239 1264.71 137.289 1245.21 113.737C1225.67 90.1551 1213.86 59.7743 1205.63 21.0913C1199.46 -7.94626 1201.19 -33.5097 1210.55 -56.857C1219.92 -80.2269 1237 -101.536 1261.78 -121.938C1311.41 -162.798 1391.55 -199.713 1501.12 -242.138Z" stroke="url(#paint3_linear)" stroke-width="4"/>
<path d="M360.539 766.283C389.98 724.075 447.372 709.291 495.297 735.674C543.208 762.049 581.814 829.676 573.323 952.6C569.358 1009.99 563.968 1052.56 556.689 1084.39C549.409 1116.22 540.249 1137.28 528.772 1151.68C517.305 1166.07 503.495 1173.86 486.829 1179.1C474.019 1183.12 459.554 1185.64 443.174 1188.48C438.205 1189.34 433.061 1190.24 427.733 1191.21C399.189 1196.44 376.287 1198.74 357.844 1196.84C339.418 1194.95 325.469 1188.87 314.787 1177.36C304.092 1165.83 296.626 1148.8 291.281 1124.9C285.936 1101.01 282.722 1070.31 280.492 1031.48C277.123 972.797 282.36 927.692 295.817 886.674C309.275 845.65 330.963 808.683 360.539 766.283Z" stroke="url(#paint4_linear)"/>
<defs>
<linearGradient id="paint0_linear" x1="1440" y1="462" x2="950.817" y2="-338.495" gradientUnits="userSpaceOnUse">
<stop/>
<stop offset="1" stop-color="#841847"/>
</linearGradient>
<linearGradient id="paint1_linear" x1="118.214" y1="121.3" x2="706.457" y2="168.354" gradientUnits="userSpaceOnUse">
<stop stop-color="#F9C5A5"/>
<stop offset="0.5" stop-color="#BD517F"/>
<stop offset="1" stop-color="#09A5A4"/>
</linearGradient>
<linearGradient id="paint2_linear" x1="291.09" y1="375.6" x2="1321.2" y2="498.724" gradientUnits="userSpaceOnUse">
<stop stop-color="#F9C5A5"/>
<stop offset="0.5" stop-color="#BD517F"/>
<stop offset="1" stop-color="#09A5A4"/>
</linearGradient>
<linearGradient id="paint3_linear" x1="1255.09" y1="-240.4" x2="2285.2" y2="-117.276" gradientUnits="userSpaceOnUse">
<stop stop-color="#F9C5A5"/>
<stop offset="0.5" stop-color="#BD517F"/>
<stop offset="1" stop-color="#09A5A4"/>
</linearGradient>
<linearGradient id="paint4_linear" x1="293.878" y1="769.6" x2="575.765" y2="778.699" gradientUnits="userSpaceOnUse">
<stop stop-color="#F9C5A5"/>
<stop offset="0.5" stop-color="#BD517F"/>
<stop offset="1" stop-color="#09A5A4"/>
</linearGradient>
</defs>
</svg>
