<svg width="1440" height="924" viewBox="0 0 1440 924" fill="none" xmlns="http://www.w3.org/2000/svg">
<rect width="1440" height="924" fill="url(#paint0_linear)"/>
<path d="M158.034 91.5712C221.499 143.535 266.433 171.542 300.722 185.084C335.116 198.667 358.824 197.704 379.698 191.799C389.233 189.101 398.156 185.377 407.127 181.633C407.901 181.31 408.675 180.987 409.45 180.665C419.242 176.588 429.204 172.57 440.403 169.754C462.707 164.144 490.127 163.249 530.631 176.776C570.554 190.11 602.377 233.962 622.317 291.747C642.218 349.416 650.081 420.424 642.496 487.158C634.908 553.922 611.894 616.137 570.321 656.497C528.86 696.749 468.67 715.527 386.008 694.983C255.118 662.451 196.781 632.204 147.458 606.63C134.147 599.728 121.492 593.167 108.245 586.993C45.6969 557.841 -29.4983 537.638 -246.819 531.411C-300.917 529.861 -338.806 518.567 -363.384 500.651C-387.875 482.798 -399.335 458.237 -400.365 429.604C-401.399 400.882 -391.931 368.011 -374.379 333.806C-356.838 299.622 -331.291 264.235 -300.348 230.525C-238.447 163.088 -155.128 102.549 -71.5715 71.8184C12.0084 41.0794 95.402 40.2897 158.034 91.5712Z" stroke="url(#paint1_linear)" stroke-width="4"/>
<rect x="1" y="-12" width="394" height="948" fill="url(#paint2_linear)" stroke="url(#paint3_linear)" stroke-width="2"/>
<defs>
<linearGradient id="paint0_linear" x1="1440" y1="462" x2="950.817" y2="-338.495" gradientUnits="userSpaceOnUse">
<stop/>
<stop offset="1" stop-color="#841847"/>
</linearGradient>
<linearGradient id="paint1_linear" x1="-210.835" y1="-9.69035" x2="684.839" y2="380.766" gradientUnits="userSpaceOnUse">
<stop stop-color="#F9C5A5"/>
<stop offset="0.5" stop-color="#BD517F"/>
<stop offset="1" stop-color="#09A5A4"/>
</linearGradient>
<linearGradient id="paint2_linear" x1="198" y1="-13" x2="198" y2="937" gradientUnits="userSpaceOnUse">
<stop stop-color="#160F39"/>
<stop offset="1" stop-color="#330A32"/>
</linearGradient>
<linearGradient id="paint3_linear" x1="19.9048" y1="81.9999" x2="397.239" y2="90.1649" gradientUnits="userSpaceOnUse">
<stop stop-color="#F9C5A5"/>
<stop offset="0.5" stop-color="#BD517F"/>
<stop offset="1" stop-color="#09A5A4"/>
</linearGradient>
</defs>
</svg>
